<?xml version="1.0" encoding="utf-8"?>
<!-- Generator: Adobe Illustrator 27.1.1, SVG Export Plug-In . SVG Version: 6.00 Build 0)  -->
<svg version="1.1" id="Layer_1" xmlns="http://www.w3.org/2000/svg" xmlns:xlink="http://www.w3.org/1999/xlink" x="0px" y="0px"
	 width="226px" height="122px" viewBox="0 0 226 122" style="enable-background:new 0 0 226 122;" xml:space="preserve">
<style type="text/css">
	.st0{opacity:0.2;}
	.st1{fill:#023242;}
</style>
<g class="st0">
	<path class="st1" d="M77.908,32.645v58.84c0,5.417-4.39,9.807-9.807,9.807H33.778c-5.417,0-9.807-4.39-9.807-9.807v-58.84
		c0-5.417,4.39-9.807,9.807-9.807h34.323C73.51,22.838,77.908,27.228,77.908,32.645z M33.778,32.645v49.033h34.323V32.645H33.778z
		 M55.843,91.484c0-2.72-2.184-4.903-4.903-4.903s-4.903,2.184-4.903,4.903s2.184,4.903,4.903,4.903
		C53.667,96.388,55.843,94.204,55.843,91.484z"/>
</g>
<g>
	<path class="st1" d="M185.779,30.193v49.033c0,4.061-3.294,7.355-7.355,7.355h-29.42l2.452,7.355h11.032
		c2.031,0,3.678,1.647,3.678,3.677c0,2.031-1.647,3.678-3.678,3.678h-41.678c-2.023,0-3.678-1.655-3.678-3.678
		c0-2.022,1.655-3.677,3.678-3.677h11.032l2.452-7.355h-29.42c-4.061,0-7.355-3.294-7.355-7.355V30.193
		c0-4.061,3.294-7.355,7.355-7.355h73.55C182.485,22.838,185.779,26.132,185.779,30.193z M175.973,32.645h-68.646v34.323h68.646
		V32.645z"/>
</g>
</svg>
